module github.com/ayush-shrivastava22/stock_market

go 1.17

require github.com/stretchr/testify v1.7.0

require (
	github.com/davecgh/go-spew v1.1.0 // indirect
	github.com/go-sql-driver/mysql v1.6.0 // indirect
	github.com/gorilla/mux v1.8.0 // indirect
	github.com/pmezard/go-difflib v1.0.0 // indirect
	gopkg.in/yaml.v3 v3.0.0-20200313102051-9f266ea9e77c // indirect
)
